traffic_light.vcd
$date
	Tue Oct  7 00:04:27 2025
$end
$version
	Icarus Verilog
$end
$timescale
	1s
$end
$scope module tb_traffic_light_controller $end
$var wire 1 ! yellow $end
$var wire 1 " red $end
$var wire 1 # green $end
$var reg 1 $ clk $end
$var reg 1 % reset $end
$scope module uut $end
$var wire 1 $ clk $end
$var wire 1 % reset $end
$var reg 2 & current_state [1:0] $end
$var reg 1 # green $end
$var reg 2 ' next_state [1:0] $end
$var reg 1 " red $end
$var reg 4 ( timer [3:0] $end
$var reg 1 ! yellow $end
$upscope $end
$upscope $end
$enddefinitions $end
$comment Show the parameter values. $end
$dumpall
$end
#0
$dumpvars
b0 (
b1 '
b0 &
1%
0$
0#
1"
0!
$end
#5
1$
#10
0$
0%
#15
b1 (
1$
#20
0$
#25
b10 (
1$
#30
0$
#35
b11 (
1$
#40
0$
#45
b100 (
1$
#50
0$
#55
b10 '
1#
0"
b0 (
b1 &
1$
#60
0$
#65
b1 (
1$
#70
0$
#75
b10 (
1$
#80
0$
#85
b11 (
1$
#90
0$
#95
b100 (
1$
#100
0$
#105
1!
0#
b0 '
b0 (
b10 &
1$
#110
0$
#115
b1 (
1$
#120
0$
#125
b1 '
0!
1"
b0 (
b0 &
1$
#130
0$
#135
b1 (
1$
#140
0$
#145
b10 (
1$
#150
0$
#155
b11 (
1$
#160
0$
#165
b100 (
1$
#170
0$
#175
1#
0"
b10 '
b0 (
b1 &
1$
#180
0$
#185
b1 (
1$
#190
0$
#195
b10 (
1$
#200
0$
#205
b11 (
1$
#210
0$
#215
b100 (
1$
#220
0$
#225
b0 '
1!
0#
b0 (
b10 &
1$
#230
0$
#235
b1 (
1$
#240
0$
#245
0!
1"
b1 '
b0 (
b0 &
1$
#250
0$
#255
b1 (
1$
#260
0$
#265
b10 (
1$
#270
0$
#275
b11 (
1$
#280
0$
#285
b100 (
1$
#290
0$
#295
b10 '
1#
0"
b0 (
b1 &
1$
#300
0$
#305
b1 (
1$
#310
0$
#315
b10 (
1$
#320
0$
#325
b11 (
1$
#330
0$
#335
b100 (
1$
#340
0$
#345
1!
0#
b0 '
b0 (
b10 &
1$
#350
0$
#355
b1 (
1$
#360
0$
#365
b1 '
0!
1"
b0 (
b0 &
1$
#370
0$
#375
b1 (
1$
#380
0$
#385
b10 (
1$
#390
0$
#395
b11 (
1$
#400
0$
#405
b100 (
1$
#410
0$
#415
1#
0"
b10 '
b0 (
b1 &
1$
#420
0$
#425
b1 (
1$
#430
0$
#435
b10 (
1$
#440
0$
#445
b11 (
1$
#450
0$
#455
b100 (
1$
#460
0$
#465
b0 '
1!
0#
b0 (
b10 &
1$
#470
0$
#475
b1 (
1$
#480
0$
#485
0!
1"
b1 '
b0 (
b0 &
1$
#490
0$
#495
b1 (
1$
#500
0$
#505
b10 (
1$
#510
0$
#515
b11 (
1$
#520
0$
#525
b100 (
1$
#530
0$
#535
b10 '
1#
0"
b0 (
b1 &
1$
#540
0$
#545
b1 (
1$
#550
0$
#555
b10 (
1$
#560
0$
#565
b11 (
1$
#570
0$
#575
b100 (
1$
#580
0$
#585
1!
0#
b0 '
b0 (
b10 &
1$
#590
0$
#595
b1 (
1$
#600
0$
#605
b1 '
0!
1"
b0 (
b0 &
1$
#610
0$
#615
b1 (
1$
#620
0$
#625
b10 (
1$
#630
0$
#635
b11 (
1$
#640
0$
#645
b100 (
1$
#650
0$
#655
1#
0"
b10 '
b0 (
b1 &
1$
#660
0$
#665
b1 (
1$
#670
0$
#675
b10 (
1$
#680
0$
#685
b11 (
1$
#690
0$
#695
b100 (
1$
#700
0$
#705
b0 '
1!
0#
b0 (
b10 &
1$
#710
0$
#715
b1 (
1$
#720
0$
#725
0!
1"
b1 '
b0 (
b0 &
1$
#730
0$
#735
b1 (
1$
#740
0$
#745
b10 (
1$
#750
0$
#755
b11 (
1$
#760
0$
#765
b100 (
1$
#770
0$
#775
b10 '
1#
0"
b0 (
b1 &
1$
#780
0$
#785
b1 (
1$
#790
0$
#795
b10 (
1$
#800
0$
#805
b11 (
1$
#810
0$
#815
b100 (
1$
#820
0$
#825
1!
0#
b0 '
b0 (
b10 &
1$
#830
0$
#835
b1 (
1$
#840
0$
#845
b1 '
0!
1"
b0 (
b0 &
1$
#850
0$
#855
b1 (
1$
#860
0$
#865
b10 (
1$
#870
0$
#875
b11 (
1$
#880
0$
#885
b100 (
1$
#890
0$
#895
1#
0"
b10 '
b0 (
b1 &
1$
#900
0$
#905
b1 (
1$
#910
0$
#915
b10 (
1$
#920
0$
#925
b11 (
1$
#930
0$
#935
b100 (
1$
#940
0$
#945
b0 '
1!
0#
b0 (
b10 &
1$
#950
0$
#955
b1 (
1$
#960
0$
#965
0!
1"
b1 '
b0 (
b0 &
1$
#970
0$
#975
b1 (
1$
#980
0$
#985
b10 (
1$
#990
0$
#995
b11 (
1$
#1000
0$
#1005
b100 (
1$
